{
  "data": [
    {
      "label": "Medicine",
      "data": "Medicine",
      "children": [
        {
          "label": "Endocrinology",
          "data": "Endocrinology"
        },
        {
          "label": "Immuniology",
          "data": "Immuniology"
        },
        {
          "label": "Internal Medicine",
          "data": "Internal Medicine"
        }
      ]
    },
    {
      "label": "North East",
      "data": "North East"
    },
    {
      "label": "South East",
      "data": "South East"
    },
    {
      "label": "Mid West",
      "data": "Mid West"
    },
    {
      "label": "South West",
      "data": "South West",
      "children": [
        {
          "data": "Los Angeles",
          "label": "Los Angeles"
        },
        {
          "label": "San Diego",
          "data": "San Diego",
          "children": [
            {
              "label": "Memorial Hospital",
              "data": "Memorial Hospital"
            },
            {
              "label": "Rady's Children",
              "data": "Rady's Children"
            }
          ]
        }
      ]
    },
    {
      "label": "Barcelona",
      "data": "Barcelona"
    },
    {
      "label": "Madrid",
      "data": "Madrid"
    }
  ]
}