{
  "_uuid":"",
  "error":false,
  "errorMessage":null,
  "payload": {
    "title": "Test Narrative",
    "contentType": "text",
    "narrative": "This is a mock narrative to be used on the mock server"
  }
}