{
   "_uuid":"",
   "error":false,
   "errorMessage":null,
   "payload":{
      "metadata":{
         "_uuid":"05e06574-e97a-4b63-a367-d5aa136c8d45"
      },
      "accessionDateTime":"201706301830",
      "data":[
         {
            "201103040156":[
               {
                  "dataType":"date",
                  "type":"lastUpdated",
                  "value":"201710250941"
               },
               {
                  "dataType":null,
                  "type":"component",
                  "value":"Haemoglobin"
               },
               {
                  "dataType":null,
                  "type":"resultValue",
                  "value":"176"
               },
               {
                  "dataType":null,
                  "type":"units",
                  "value":"g/L"
               },
               {
                  "dataType":null,
                  "type":"referenceRange",
                  "value":"135-180"
               },
               {
                  "dataType":null,
                  "type":"interpretation",
                  "value":null
               },
               {
                  "dataType":null,
                  "type":"id",
                  "value":"#r1"
               }
            ]
         },
         {
            "201103040156":[
               {
                  "dataType":"date",
                  "type":"lastUpdated",
                  "value":"201710250941"
               },
               {
                  "dataType":null,
                  "type":"component",
                  "value":"Red Cell Count"
               },
               {
                  "dataType":null,
                  "type":"resultValue",
                  "value":"5.9"
               },
               {
                  "dataType":null,
                  "type":"units",
                  "value":"x10*12/L"
               },
               {
                  "dataType":null,
                  "type":"referenceRange",
                  "value":"4.2-6.0"
               },
               {
                  "dataType":null,
                  "type":"interpretation",
                  "value":null
               },
               {
                  "dataType":null,
                  "type":"id",
                  "value":"#r2"
               }
            ]
         },
         {
            "201103040156":[
               {
                  "dataType":"date",
                  "type":"lastUpdated",
                  "value":"201710250941"
               },
               {
                  "dataType":null,
                  "type":"component",
                  "value":"Haematocrit"
               },
               {
                  "dataType":null,
                  "type":"resultValue",
                  "value":"55"
               },
               {
                  "dataType":null,
                  "type":"units",
                  "value":"%"
               },
               {
                  "dataType":null,
                  "type":"referenceRange",
                  "value":"38-52"
               },
               {
                  "dataType":null,
                  "type":"interpretation",
                  "value":"H"
               },
               {
                  "dataType":null,
                  "type":"id",
                  "value":"#r3"
               }
            ]
         },
         {
            "201103040156":[
               {
                  "dataType":"date",
                  "type":"lastUpdated",
                  "value":"201710250941"
               },
               {
                  "dataType":null,
                  "type":"component",
                  "value":"Mean Cell Volume"
               },
               {
                  "dataType":null,
                  "type":"resultValue",
                  "value":"99"
               },
               {
                  "dataType":null,
                  "type":"units",
                  "value":"fL"
               },
               {
                  "dataType":null,
                  "type":"referenceRange",
                  "value":"80-98"
               },
               {
                  "dataType":null,
                  "type":"interpretation",
                  "value":"H"
               },
               {
                  "dataType":null,
                  "type":"id",
                  "value":"#r4"
               }
            ]
         },
         {
            "201103040156":[
               {
                  "dataType":"date",
                  "type":"lastUpdated",
                  "value":"201710250941"
               },
               {
                  "dataType":null,
                  "type":"component",
                  "value":"Mean Cell Haemoglobin"
               },
               {
                  "dataType":null,
                  "type":"resultValue",
                  "value":"36"
               },
               {
                  "dataType":null,
                  "type":"units",
                  "value":"pg"
               },
               {
                  "dataType":null,
                  "type":"referenceRange",
                  "value":"27-35"
               },
               {
                  "dataType":null,
                  "type":"interpretation",
                  "value":"H"
               },
               {
                  "dataType":null,
                  "type":"id",
                  "value":"#r5"
               }
            ]
         },
         {
            "201103040156":[
               {
                  "dataType":"date",
                  "type":"lastUpdated",
                  "value":"201710250941"
               },
               {
                  "dataType":null,
                  "type":"component",
                  "value":"Platelet Count"
               },
               {
                  "dataType":null,
                  "type":"resultValue",
                  "value":"444"
               },
               {
                  "dataType":null,
                  "type":"units",
                  "value":"x10*9/L"
               },
               {
                  "dataType":null,
                  "type":"referenceRange",
                  "value":"150-450"
               },
               {
                  "dataType":null,
                  "type":"interpretation",
                  "value":null
               },
               {
                  "dataType":null,
                  "type":"id",
                  "value":"#r6"
               }
            ]
         },
         {
            "201103040156":[
               {
                  "dataType":"date",
                  "type":"lastUpdated",
                  "value":"201710250941"
               },
               {
                  "dataType":null,
                  "type":"component",
                  "value":"White Cell Count"
               },
               {
                  "dataType":null,
                  "type":"resultValue",
                  "value":"4.6"
               },
               {
                  "dataType":null,
                  "type":"units",
                  "value":"x10*9/L"
               },
               {
                  "dataType":null,
                  "type":"referenceRange",
                  "value":"4.0-11.0"
               },
               {
                  "dataType":null,
                  "type":"interpretation",
                  "value":null
               },
               {
                  "dataType":null,
                  "type":"id",
                  "value":"#r7"
               }
            ]
         },
         {
            "201103040156":[
               {
                  "dataType":"date",
                  "type":"lastUpdated",
                  "value":"201710250941"
               },
               {
                  "dataType":null,
                  "type":"component",
                  "value":"Neutrophils"
               },
               {
                  "dataType":null,
                  "type":"resultValue",
                  "value":"20"
               },
               {
                  "dataType":null,
                  "type":"units",
                  "value":"%"
               },
               {
                  "dataType":null,
                  "type":"referenceRange",
                  "value":null
               },
               {
                  "dataType":null,
                  "type":"interpretation",
                  "value":null
               },
               {
                  "dataType":null,
                  "type":"id",
                  "value":"#r8"
               }
            ]
         },
         {
            "201103040156":[
               {
                  "dataType":"date",
                  "type":"lastUpdated",
                  "value":"201710250941"
               },
               {
                  "dataType":null,
                  "type":"component",
                  "value":"Neutrophils"
               },
               {
                  "dataType":null,
                  "type":"resultValue",
                  "value":"0.9"
               },
               {
                  "dataType":null,
                  "type":"units",
                  "value":"x10*9/L"
               },
               {
                  "dataType":null,
                  "type":"referenceRange",
                  "value":"2.0-7.5"
               },
               {
                  "dataType":null,
                  "type":"interpretation",
                  "value":"LL"
               },
               {
                  "dataType":null,
                  "type":"id",
                  "value":"#r9"
               }
            ]
         },
         {
            "201103040156":[
               {
                  "dataType":"date",
                  "type":"lastUpdated",
                  "value":"201710250941"
               },
               {
                  "dataType":null,
                  "type":"component",
                  "value":"Lymphocytes"
               },
               {
                  "dataType":null,
                  "type":"resultValue",
                  "value":"20"
               },
               {
                  "dataType":null,
                  "type":"units",
                  "value":"%"
               },
               {
                  "dataType":null,
                  "type":"referenceRange",
                  "value":null
               },
               {
                  "dataType":null,
                  "type":"interpretation",
                  "value":null
               },
               {
                  "dataType":null,
                  "type":"id",
                  "value":"#r10"
               }
            ]
         },
         {
            "201103040156":[
               {
                  "dataType":"date",
                  "type":"lastUpdated",
                  "value":"201710250941"
               },
               {
                  "dataType":null,
                  "type":"component",
                  "value":"Lymphocytes"
               },
               {
                  "dataType":null,
                  "type":"resultValue",
                  "value":"0.9"
               },
               {
                  "dataType":null,
                  "type":"units",
                  "value":"x10*9/L"
               },
               {
                  "dataType":null,
                  "type":"referenceRange",
                  "value":"1.1-4.0"
               },
               {
                  "dataType":null,
                  "type":"interpretation",
                  "value":"L"
               },
               {
                  "dataType":null,
                  "type":"id",
                  "value":"#r11"
               }
            ]
         },
         {
            "201103040156":[
               {
                  "dataType":"date",
                  "type":"lastUpdated",
                  "value":"201710250941"
               },
               {
                  "dataType":null,
                  "type":"component",
                  "value":"Monocytes"
               },
               {
                  "dataType":null,
                  "type":"resultValue",
                  "value":"20"
               },
               {
                  "dataType":null,
                  "type":"units",
                  "value":"%"
               },
               {
                  "dataType":null,
                  "type":"referenceRange",
                  "value":null
               },
               {
                  "dataType":null,
                  "type":"interpretation",
                  "value":null
               },
               {
                  "dataType":null,
                  "type":"id",
                  "value":"#r12"
               }
            ]
         },
         {
            "201103040156":[
               {
                  "dataType":"date",
                  "type":"lastUpdated",
                  "value":"201710250941"
               },
               {
                  "dataType":null,
                  "type":"component",
                  "value":"Monocytes"
               },
               {
                  "dataType":null,
                  "type":"resultValue",
                  "value":"0.9"
               },
               {
                  "dataType":null,
                  "type":"units",
                  "value":"x10*9/L"
               },
               {
                  "dataType":null,
                  "type":"referenceRange",
                  "value":"0.2-1.0"
               },
               {
                  "dataType":null,
                  "type":"interpretation",
                  "value":null
               },
               {
                  "dataType":null,
                  "type":"id",
                  "value":"#r13"
               }
            ]
         },
         {
            "201103040156":[
               {
                  "dataType":"date",
                  "type":"lastUpdated",
                  "value":"201710250941"
               },
               {
                  "dataType":null,
                  "type":"component",
                  "value":"Eosinophils"
               },
               {
                  "dataType":null,
                  "type":"resultValue",
                  "value":"20"
               },
               {
                  "dataType":null,
                  "type":"units",
                  "value":"%"
               },
               {
                  "dataType":null,
                  "type":"referenceRange",
                  "value":null
               },
               {
                  "dataType":null,
                  "type":"interpretation",
                  "value":null
               },
               {
                  "dataType":null,
                  "type":"id",
                  "value":"#r14"
               }
            ]
         },
         {
            "201103040156":[
               {
                  "dataType":"date",
                  "type":"lastUpdated",
                  "value":"201710250941"
               },
               {
                  "dataType":null,
                  "type":"component",
                  "value":"Eosinophils"
               },
               {
                  "dataType":null,
                  "type":"resultValue",
                  "value":"0.92"
               },
               {
                  "dataType":null,
                  "type":"units",
                  "value":"x10*9/L"
               },
               {
                  "dataType":null,
                  "type":"referenceRange",
                  "value":"0.04-0.40"
               },
               {
                  "dataType":null,
                  "type":"interpretation",
                  "value":"HH"
               },
               {
                  "dataType":null,
                  "type":"id",
                  "value":"#r15"
               }
            ]
         },
         {
            "201103040156":[
               {
                  "dataType":"date",
                  "type":"lastUpdated",
                  "value":"201710250941"
               },
               {
                  "dataType":null,
                  "type":"component",
                  "value":"Basophils"
               },
               {
                  "dataType":null,
                  "type":"resultValue",
                  "value":"20"
               },
               {
                  "dataType":null,
                  "type":"units",
                  "value":"%"
               },
               {
                  "dataType":null,
                  "type":"referenceRange",
                  "value":null
               },
               {
                  "dataType":null,
                  "type":"interpretation",
                  "value":null
               },
               {
                  "dataType":null,
                  "type":"id",
                  "value":"#r16"
               }
            ]
         },
         {
            "":[
               {
                  "dataType":"date",
                  "type":"lastUpdated",
                  "value":"201710250941"
               },
               {
                  "dataType":null,
                  "type":"component",
                  "value":"Basophils"
               },
               {
                  "dataType":null,
                  "type":"resultValue",
                  "value":"0.92"
               },
               {
                  "dataType":null,
                  "type":"units",
                  "value":"x10*9/L"
               },
               {
                  "dataType":null,
                  "type":"referenceRange",
                  "value":"0.21"
               },
               {
                  "dataType":null,
                  "type":"interpretation",
                  "value":null
               },
               {
                  "dataType":null,
                  "type":"id",
                  "value":"#r17"
               }
            ]
         }
      ],
      "type":"resultDateTime",
      "dataType": "date"
      "accessionNumber":"H23456",
      "diagnosticCodes":[
         {
            "code":"168593007",
            "display":"X-ray thoracic cage abnormal"
         },
         {
            "code":"C1960025",
            "display":"Bilateral basal pneumonia"
         }
      ]
   }
}
